waveforms/tb_spi_controller.vcd
$date
	Sun Jul 20 03:11:11 2025
$end
$version
	Icarus Verilog
$end
$timescale
	1ps
$end
$scope module tb_spi_controller $end
$var wire 1 ! pready $end
$var wire 1 " pslverr $end
$var wire 1 # spi_mosi $end
$var wire 1 $ spi_miso $end
$var wire 1 % spi_irq $end
$var wire 4 & spi_csn [3:0] $end
$var wire 1 ' spi_clk $end
$var wire 32 ( prdata [31:0] $end
$var reg 1 ) cs_delay_tested $end
$var reg 1 * error_detected $end
$var reg 1 + fifo_overflow_detected $end
$var reg 1 , fifo_underflow_detected $end
$var reg 1 - interrupt_generated $end
$var reg 32 . interrupt_status [31:0] $end
$var reg 1 / loopback_tested $end
$var reg 8 0 paddr [7:0] $end
$var reg 1 1 pclk $end
$var reg 1 2 penable $end
$var reg 1 3 presetn $end
$var reg 1 4 psel $end
$var reg 32 5 pwdata [31:0] $end
$var reg 1 6 pwrite $end
$var reg 8 7 slave_data [7:0] $end
$var reg 8 8 slave_rx_data [7:0] $end
$var reg 1 9 slave_rx_valid $end
$var reg 32 : status [31:0] $end
$var reg 1 ; timeout_detected $end
$var integer 32 < cycle_count [31:0] $end
$var integer 32 = end_time [31:0] $end
$var integer 32 > fail_count [31:0] $end
$var integer 32 ? pass_count [31:0] $end
$var integer 32 @ start_time [31:0] $end
$var integer 32 A test_count [31:0] $end
$scope module dut $end
$var wire 1 B clock_gated $end
$var wire 1 C fifo_clk_gated $end
$var wire 8 D paddr_i [7:0] $end
$var wire 1 1 pclk_i $end
$var wire 1 2 penable_i $end
$var wire 1 ! pready_o $end
$var wire 1 3 presetn_i $end
$var wire 1 4 psel_i $end
$var wire 1 " pslverr_o $end
$var wire 32 E pwdata_i [31:0] $end
$var wire 1 6 pwrite_i $end
$var wire 1 F rx_fifo_rd $end
$var wire 1 G rx_fifo_underflow $end
$var wire 1 H rx_fifo_wr_enabled $end
$var wire 4 I spi_csn_o [3:0] $end
$var wire 1 $ spi_miso_i $end
$var wire 1 J timeout_enabled $end
$var wire 1 K tx_fifo_overflow $end
$var wire 1 L tx_fifo_rd $end
$var wire 5 M tx_fifo_level [4:0] $end
$var wire 1 N tx_fifo_full $end
$var wire 1 O tx_fifo_empty $end
$var wire 32 P tx_fifo_data [31:0] $end
$var wire 32 Q stat_reg [31:0] $end
$var wire 8 R spi_rx_data [7:0] $end
$var wire 1 # spi_mosi_o $end
$var wire 1 S spi_done $end
$var wire 1 ' spi_clk_o $end
$var wire 1 T spi_clk_gated $end
$var wire 1 U spi_busy $end
$var wire 4 V slave_select [3:0] $end
$var wire 1 W rx_fifo_wr $end
$var wire 5 X rx_fifo_level [4:0] $end
$var wire 1 Y rx_fifo_full $end
$var wire 1 Z rx_fifo_empty $end
$var wire 32 [ rx_fifo_data [31:0] $end
$var wire 1 \ power_down_mode $end
$var wire 4 ] max_retries [3:0] $end
$var wire 1 ^ error_recovery_mode $end
$var wire 4 _ cs_output [3:0] $end
$var wire 1 ` auto_retry_enabled $end
$var parameter 32 a DATA_WIDTH $end
$var parameter 32 b FIFO_DEPTH $end
$var parameter 32 c MAX_FREQ_MHZ $end
$var reg 32 d baud_reg [31:0] $end
$var reg 32 e ctrl_reg [31:0] $end
$var reg 32 f fifo_reg [31:0] $end
$var reg 32 g int_reg [31:0] $end
$var reg 32 h mode_reg [31:0] $end
$var reg 32 i prdata_o [31:0] $end
$var reg 1 j recovery_in_progress $end
$var reg 4 k retry_count [3:0] $end
$var reg 1 % spi_irq_o $end
$var reg 1 l spi_timeout $end
$var reg 16 m timeout_counter [15:0] $end
$var reg 1 n tx_fifo_wr $end
$var reg 32 o txdata_reg [31:0] $end
$scope module rx_fifo $end
$var wire 1 C clk_i $end
$var wire 32 p data_i [31:0] $end
$var wire 32 q data_o [31:0] $end
$var wire 5 r level_o [4:0] $end
$var wire 1 F rd_i $end
$var wire 1 3 reset_n_i $end
$var wire 1 H wr_i $end
$var wire 1 Y full_o $end
$var wire 1 Z empty_o $end
$var parameter 32 s ADDR_WIDTH $end
$var parameter 32 t DATA_WIDTH $end
$var parameter 32 u FIFO_DEPTH $end
$var reg 5 v count [4:0] $end
$var reg 4 w rd_ptr [3:0] $end
$var reg 4 x wr_ptr [3:0] $end
$upscope $end
$scope module spi_engine $end
$var wire 16 y baud_div_i [15:0] $end
$var wire 1 T clk_i $end
$var wire 8 z cs_delay_i [7:0] $end
$var wire 1 { cs_enable_i $end
$var wire 1 S done_o $end
$var wire 1 | enable_i $end
$var wire 1 } loopback_i $end
$var wire 2 ~ mode_i [1:0] $end
$var wire 1 3 reset_n_i $end
$var wire 1 !" rx_enable_i $end
$var wire 1 W rx_valid_o $end
$var wire 1 ' spi_clk_o $end
$var wire 1 "" spi_miso_i $end
$var wire 8 #" tx_data_i [7:0] $end
$var wire 1 $" tx_enable_i $end
$var wire 1 %" tx_valid_i $end
$var wire 1 L tx_ready_o $end
$var wire 1 # spi_mosi_o $end
$var wire 8 &" rx_data_o [7:0] $end
$var wire 1 '" cpol $end
$var wire 1 (" cpha $end
$var wire 1 U busy_o $end
$var parameter 32 )" BIT_COUNTER_WIDTH $end
$var parameter 32 *" COUNTER_WIDTH $end
$var parameter 32 +" DATA_WIDTH $end
$var reg 3 ," bit_counter [2:0] $end
$var reg 16 -" clk_counter [15:0] $end
$var reg 8 ." cs_delay_counter [7:0] $end
$var reg 3 /" current_state [2:0] $end
$var reg 3 0" next_state [2:0] $end
$var reg 8 1" rx_shift_reg [7:0] $end
$var reg 1 2" spi_clk_internal $end
$var reg 8 3" tx_shift_reg [7:0] $end
$upscope $end
$scope module tx_fifo $end
$var wire 1 C clk_i $end
$var wire 32 4" data_i [31:0] $end
$var wire 32 5" data_o [31:0] $end
$var wire 5 6" level_o [4:0] $end
$var wire 1 L rd_i $end
$var wire 1 3 reset_n_i $end
$var wire 1 n wr_i $end
$var wire 1 N full_o $end
$var wire 1 O empty_o $end
$var parameter 32 7" ADDR_WIDTH $end
$var parameter 32 8" DATA_WIDTH $end
$var parameter 32 9" FIFO_DEPTH $end
$var reg 5 :" count [4:0] $end
$var reg 4 ;" rd_ptr [3:0] $end
$var reg 4 <" wr_ptr [3:0] $end
$upscope $end
$upscope $end
$scope begin $ivl_for_loop2 $end
$var integer 32 =" i [31:0] $end
$upscope $end
$scope task apb_read $end
$var reg 8 >" addr [7:0] $end
$var reg 32 ?" data [31:0] $end
$upscope $end
$scope task apb_write $end
$var reg 8 @" addr [7:0] $end
$var reg 32 A" data [31:0] $end
$upscope $end
$scope task test_cs_delay $end
$upscope $end
$scope task test_error_detection $end
$upscope $end
$scope task test_fifo_overflow $end
$scope begin $ivl_for_loop0 $end
$var integer 32 B" i [31:0] $end
$upscope $end
$upscope $end
$scope task test_fifo_underflow $end
$upscope $end
$scope task test_interrupt_generation $end
$upscope $end
$scope task test_loopback_mode $end
$upscope $end
$scope task test_performance $end
$scope begin $ivl_for_loop1 $end
$var integer 32 C" i [31:0] $end
$upscope $end
$upscope $end
$scope task test_spi_mode $end
$var reg 2 D" mode [1:0] $end
$var reg 8 E" test_data_in [7:0] $end
$upscope $end
$upscope $end
$enddefinitions $end
$comment Show the parameter values. $end
$dumpall
b10000 9"
b100000 8"
b100 7"
b1000 +"
b10000 *"
b11 )"
b10000 u
b100000 t
b100 s
b1100100 c
b10000 b
b1000 a
$end
#0
$dumpvars
bx E"
bx D"
bx C"
bx B"
bx A"
bx @"
bx ?"
bx >"
b100000 ="
b0 <"
b0 ;"
b0 :"
b0 6"
bx 5"
b0 4"
b0 3"
x2"
b0 1"
b0 0"
b0 /"
b0 ."
b0 -"
b0 ,"
0("
0'"
b0 &"
0%"
0$"
bx #"
0""
0!"
b0 ~
0}
0|
0{
b0 z
b1010 y
b0 x
b0 w
b0 v
b0 r
bx q
b0 p
b0 o
xn
b0 m
0l
b0 k
0j
b0 i
b0 h
b0 g
b10000 f
b0 e
b1010 d
0`
b1111 _
0^
b0 ]
0\
bx [
1Z
0Y
b0 X
0W
b0 V
0U
0T
0S
b0 R
b10 Q
bx P
1O
0N
b0 M
1L
0K
0J
b1111 I
0H
0G
0F
b0 E
b0 D
0C
0B
b0 A
bx @
b0 ?
b0 >
bx =
bx <
x;
bx :
09
b0 8
b0 7
06
b0 5
04
03
02
01
b0 0
x/
bx .
0-
0,
0+
x*
x)
b0 (
x'
b1111 &
0%
0$
0#
0"
1!
$end
#5000
0'
02"
1T
1C
11
#10000
0T
0C
01
#15000
1T
1C
11
#20000
0T
0C
01
#25000
1T
1C
11
#30000
0T
0C
01
#35000
1T
1C
11
#40000
0T
0C
01
#45000
1T
1C
11
#50000
0T
0C
01
#55000
1T
1C
11
#60000
0T
0C
01
#65000
1T
1C
11
#70000
0T
0C
01
#75000
1T
1C
11
#80000
0T
0C
01
#85000
1T
1C
11
#90000
0T
0C
01
#95000
1T
1C
11
#100000
0T
0C
01
13
#105000
0n
1T
1C
11
#110000
0T
0C
01
#115000
1T
1C
11
#120000
0T
0C
01
#125000
1T
1C
11
#130000
0T
0C
01
#135000
1T
1C
11
#140000
0T
0C
01
#145000
1T
1C
11
#150000
0T
0C
01
b1 A"
b0 @"
b1 A
#155000
1T
b1 5
b1 E
16
14
1C
11
#160000
0T
0C
01
#165000
b1 (
b1 i
1|
b1 e
1T
12
1C
11
#170000
0T
0C
01
#175000
1T
b1010 A"
b10000 @"
02
04
1C
11
#180000
0T
0C
01
#185000
b1010 (
b1010 i
1T
b1010 5
b1010 E
b10000 0
b10000 D
14
1C
11
#190000
0T
0C
01
#195000
1T
12
1C
11
#200000
0T
0C
01
#205000
1T
02
04
1C
11
#210000
0T
0C
01
#215000
1T
1C
11
#220000
0T
0C
01
#225000
1T
1C
11
#230000
0T
0C
01
#235000
1T
1C
11
#240000
0T
0C
01
#245000
1T
1C
11
#250000
0T
0C
01
#255000
1T
1C
11
#260000
0T
0C
01
#265000
1T
1C
11
#270000
0T
0C
01
#275000
1T
1C
11
#280000
0T
0C
01
#285000
1T
1C
11
#290000
0T
0C
01
#295000
1T
1C
11
#300000
0T
0C
01
#305000
b0 (
b0 i
1T
b0 5
b0 E
b11100 0
b11100 D
14
1C
11
b0 A"
b11100 @"
b10101010 E"
b0 D"
b10 A
b1 ?
#310000
0T
0C
01
#315000
1T
12
1C
11
#320000
0T
0C
01
#325000
1T
b10101010 A"
b1000 @"
02
04
1C
11
#330000
0T
0C
01
#335000
1T
b10101010 5
b10101010 E
b1000 0
b1000 D
14
1C
11
#340000
0T
0C
01
#345000
1n
b10101010 o
b10101010 4"
1T
12
1C
11
#350000
0T
0C
01
#355000
b10101010 #"
b1 <"
0O
b100000010 Q
b1 M
b1 6"
b1 :"
b10101010 P
b10101010 5"
0n
1T
02
04
1C
11
#360000
0T
0C
01
#365000
bx #"
1O
b10 Q
b0 M
b0 6"
b0 :"
bx P
bx 5"
b1 ;"
1T
1C
11
